<?xml version="1.0" encoding="UTF-8"?>
<svg xmlns="http://www.w3.org/2000/svg" xmlns:xlink="http://www.w3.org/1999/xlink" viewBox="0 0 48 48" width="48px" height="48px">
<g id="surface16545444">
<path style=" stroke:none;fill-rule:nonzero;fill:rgb(58.431375%,64.705884%,65.098041%);fill-opacity:1;" d="M 24 4 C 22.421875 4 20.902344 4.199219 19.453125 4.535156 C 18.832031 4.683594 18.371094 5.203125 18.300781 5.835938 L 17.984375 8.738281 C 17.878906 9.6875 17.328125 10.53125 16.5 11.007812 C 15.671875 11.488281 14.667969 11.539062 13.792969 11.15625 L 13.789062 11.15625 L 11.125 9.984375 C 10.542969 9.726562 9.859375 9.867188 9.425781 10.328125 C 7.351562 12.539062 5.761719 15.214844 4.859375 18.199219 C 4.675781 18.808594 4.894531 19.46875 5.40625 19.84375 L 7.773438 21.578125 C 8.546875 22.148438 9 23.042969 9 24 C 9 24.957031 8.546875 25.851562 7.773438 26.417969 L 5.40625 28.152344 C 4.894531 28.527344 4.675781 29.1875 4.859375 29.796875 C 5.761719 32.78125 7.351562 35.460938 9.425781 37.667969 C 9.863281 38.132812 10.542969 38.273438 11.125 38.015625 L 13.789062 36.839844 C 14.667969 36.457031 15.671875 36.511719 16.5 36.988281 C 17.328125 37.46875 17.878906 38.3125 17.984375 39.261719 L 18.300781 42.164062 C 18.371094 42.796875 18.832031 43.316406 19.449219 43.460938 C 20.902344 43.800781 22.421875 44 24 44 C 25.578125 44 27.097656 43.800781 28.546875 43.464844 C 29.167969 43.316406 29.628906 42.796875 29.699219 42.164062 L 30.015625 39.261719 C 30.121094 38.3125 30.671875 37.46875 31.5 36.988281 C 32.328125 36.511719 33.332031 36.457031 34.207031 36.839844 L 36.875 38.015625 C 37.457031 38.273438 38.136719 38.132812 38.574219 37.667969 C 40.648438 35.460938 42.238281 32.78125 43.140625 29.796875 C 43.324219 29.1875 43.105469 28.527344 42.59375 28.152344 L 40.226562 26.417969 C 39.453125 25.851562 39 24.957031 39 24 C 39 23.042969 39.453125 22.148438 40.226562 21.578125 L 42.59375 19.847656 C 43.105469 19.472656 43.324219 18.8125 43.140625 18.203125 C 42.238281 15.21875 40.648438 12.539062 38.574219 10.328125 C 38.136719 9.867188 37.457031 9.726562 36.875 9.984375 L 34.207031 11.15625 C 33.332031 11.542969 32.328125 11.488281 31.5 11.007812 C 30.671875 10.53125 30.121094 9.6875 30.015625 8.738281 L 29.699219 5.835938 C 29.628906 5.203125 29.167969 4.683594 28.550781 4.539062 C 27.097656 4.199219 25.578125 4 24 4 Z M 24 7 C 24.972656 7 25.910156 7.175781 26.847656 7.339844 L 27.035156 9.0625 C 27.242188 10.964844 28.347656 12.652344 30 13.605469 C 31.652344 14.5625 33.667969 14.671875 35.417969 13.90625 L 37.003906 13.207031 C 38.21875 14.667969 39.183594 16.320312 39.859375 18.132812 L 38.453125 19.164062 C 36.910156 20.292969 36 22.089844 36 24 C 36 25.910156 36.910156 27.707031 38.453125 28.839844 L 39.859375 29.871094 C 39.183594 31.679688 38.21875 33.332031 37.003906 34.792969 L 35.417969 34.097656 C 33.667969 33.328125 31.652344 33.4375 30 34.394531 C 28.347656 35.347656 27.242188 37.035156 27.035156 38.9375 L 26.847656 40.660156 C 25.910156 40.824219 24.972656 41 24 41 C 23.027344 41 22.089844 40.824219 21.152344 40.660156 L 20.964844 38.9375 C 20.757812 37.035156 19.652344 35.347656 18 34.394531 C 16.347656 33.4375 14.332031 33.328125 12.582031 34.097656 L 10.996094 34.792969 C 9.78125 33.332031 8.816406 31.679688 8.140625 29.871094 L 9.546875 28.839844 C 11.089844 27.707031 12 25.910156 12 24 C 12 22.089844 11.085938 20.289062 9.546875 19.160156 L 8.140625 18.128906 C 8.816406 16.320312 9.78125 14.667969 11 13.207031 L 12.582031 13.902344 C 14.332031 14.671875 16.347656 14.5625 18 13.609375 C 19.652344 12.652344 20.757812 10.964844 20.964844 9.066406 L 21.152344 7.339844 C 22.089844 7.175781 23.027344 7 24 7 Z M 24 16 C 19.597656 16 16 19.597656 16 24 C 16 28.402344 19.597656 32 24 32 C 28.402344 32 32 28.402344 32 24 C 32 19.597656 28.402344 16 24 16 Z M 24 19 C 26.777344 19 29 21.222656 29 24 C 29 26.777344 26.777344 29 24 29 C 21.222656 29 19 26.777344 19 24 C 19 21.222656 21.222656 19 24 19 Z M 24 19 "/>
</g>
</svg>
